Project 1
…
My_Data <- read_excel("Data.xlsx",sheet=2,range="A1:C32", col_names = TRUE)

lifeexp<-My_Data$`Life expectancy at birth, total (years)`
unemplrate<-My_Data$`Unemployment, total (% of total labor force) (national estimate)`

My_Data

## # A tibble: 31 x 3
##    Year      `Life expectancy at birth,  `Unemployment, total (% of total labo
##    <chr>                            <dbl>                                  <dbl>
##  1 1983 [YR                         76.1                                  12.0 
##  2 1984 [YR                         76.2                                  11.3 
##  3 1985 [YR                         76.4                                  10.5 
##  4 1986 [YR                         76.5                                   9.59
##  5 1987 [YR                         76.7                                   8.82
##  6 1988 [YR                         76.9                                   7.76
##  7 1989 [YR                         77.1                                   7.55
##  8 1990 [YR                         77.4                                   8.13
##  9 1991 [YR                         77.6                                  10.3 
## 10 1992 [YR                         77.7                                  11.2 
## #  with 21 more rows
…
According to the results of the tests and analysis of the plots, my Regression model holds only 3 basic assumptions of SLR such as linearity of Y, homogeneity of variance of residuals, normality of residuals. However, 2 assumptions such as independence of residuals and independence of predictor variable are not held by the model, as they are both dependent. To fix these problems I use 2 methods: Randomizing Data and Box-Cox transformation. After applying them I will decide which of them solved these problems. 

a) Randomizing data

 If we look at the table on which my project is based, it is clearly seen that the unemployment rate and corresponding to it life expectancy values are sorted by the year. As the data is taken from the Excel file, I created a new sheet with the same data in Excel and using function RAND() created a 4th column with random numbers. Then I sorted the rows of data table by this column. So I randomized my data.  #### A new table with randomized table

My_Data2 <- read_excel("Data.xlsx",sheet=3,range="A1:C32", col_names = TRUE)

lifeexp2<-My_Data2$`Life expectancy at birth, total (years)`
unemplrate2<-My_Data2$`Unemployment, total (% of total labor force) (national estimate)`

My_Data2

## # A tibble: 31 x 3
##    Year      `Life expectancy at birth,  `Unemployment, total (% of total labo
##    <chr>                            <dbl>                                  <dbl>
##  1 2012 [YR                         81.6                                   7.29
##  2 2007 [YR                         80.5                                   6.04
##  3 1990 [YR                         77.4                                   8.13
##  4 1993 [YR                         77.8                                  11.4 
##  5 1995 [YR                         78.0                                   9.49
##  6 1985 [YR                         76.4                                  10.5 
##  7 2005 [YR                         80.2                                   6.76
##  8 1997 [YR                         78.4                                   9.10
##  9 1999 [YR                         78.9                                   7.58
## 10 1986 [YR                         76.5                                   9.59
## #  with 21 more rows
…
